…
    ##       exp   trtlong      crop       sub     amend  amendall       amf  comprate 
    ##         0       257         0         0      7523     14399         1         0 
    ##        rb       day   daycode      meau     value    daynew comprate2 
    ##       240         0      7731         0      1076      7715     14399

``` r
combo_counts <- df %>%
  count(exp, trtlong, meau, sub)

print(combo_counts)
```

    ## # A tibble: 548 × 5
    ##    exp   trtlong       meau       sub       n
    ##    <chr> <chr>         <chr>      <chr> <int>
    ##  1 e10   0.5comp PF    count      pf        6
    ##  2 e10   0.5comp PF    dryyield   pf        6
    ##  3 e10   0.5comp PF    freshyield pf        6
    ##  4 e10   0.5comp PF    height     pf       30
    ##  5 e10   0.5comp Peat  count      peat      6
    ##  6 e10   0.5comp Peat  dryyield   peat      6
    ##  7 e10   0.5comp Peat  freshyield peat      6
    ##  8 e10   0.5comp Peat  height     peat     30
    ##  9 e10   0.5compamf PF count      pf        6
    ## 10 e10   0.5compamf PF dryyield   pf        6
    ## # ℹ 538 more rows
…
